The tidy text format
…
tidytext unnest_tokens() function   .

library(tidytext)

text_df %>%
  unnest_tokens(word, text)

## # A tibble: 20 x 2
##     line word   
##    <int> <chr>  
##  1     1 because
##  2     1 i      
##  3     1 could  
##  4     1 not    
##  5     1 stop   
##  6     1 for    
##  7     1 death  
##  8     2 he     
##  9     2 kindly 
## 10     2 stopped
## # ... with 10 more rows
…
original_books <- 
  austen_books() %>%
  group_by(book) %>%
  mutate(linenumber = row_number(),
         chapter = cumsum(str_detect(text, 
                                     regex("^chapter [\\divxlc]",
                                           ignore_case = TRUE)))) %>%
  ungroup()

original_books

## # A tibble: 73,422 x 4
##    text                    book                linenumber chapter
##    <chr>                   <fct>                    <int>   <int>
##  1 "SENSE AND SENSIBILITY" Sense & Sensibility          1       0
##  2 ""                      Sense & Sensibility          2       0
##  3 "by Jane Austen"        Sense & Sensibility          3       0
##  4 ""                      Sense & Sensibility          4       0
##  5 "(1811)"                Sense & Sensibility          5       0
##  6 ""                      Sense & Sensibility          6       0
##  7 ""                      Sense & Sensibility          7       0
##  8 ""                      Sense & Sensibility          8       0
##  9 ""                      Sense & Sensibility          9       0
## 10 "CHAPTER 1"             Sense & Sensibility         10       1
## # ... with 73,412 more rows

tidy dataset        unnest_tokens()  .

library(tidytext)
tidy_books <- original_books %>%
  unnest_tokens(word, text)

tidy_books

## # A tibble: 725,055 x 4
##    book                linenumber chapter word       
##    <fct>                    <int>   <int> <chr>      
##  1 Sense & Sensibility          1       0 sense      
##  2 Sense & Sensibility          1       0 and        
##  3 Sense & Sensibility          1       0 sensibility
##  4 Sense & Sensibility          3       0 by         
##  5 Sense & Sensibility          3       0 jane       
##  6 Sense & Sensibility          3       0 austen     
##  7 Sense & Sensibility          5       0 1811       
##  8 Sense & Sensibility         10       1 chapter    
##  9 Sense & Sensibility         10       1 1          
## 10 Sense & Sensibility         13       1 the        
## # ... with 725,045 more rows
…
data(stop_words)

tidy_books <- tidy_books %>%
  anti_join(stop_words)

## Joining, by = "word"

Tidytext package stop_words dataset   lexicons(, ) stop words  .    ,  filter()      .

 dplyr count()          .

tidy_books %>%
  count(word, sort = TRUE) 

## # A tibble: 13,914 x 2
##    word       n
##    <chr>  <int>
##  1 miss    1855
##  2 time    1337
##  3 fanny    862
##  4 dear     822
##  5 lady     817
##  6 sir      806
##  7 day      797
##  8 emma     787
##  9 sister   727
## 10 house    699
## # ... with 13,904 more rows
…
# hgwells <- gutenberg_download(c(35, 36, 5230, 159))

tidy_hgwells <- hgwells %>%
  unnest_tokens(word, text) %>%
  anti_join(stop_words)

## Joining, by = "word"

H.G wells     .

tidy_hgwells %>%
  count(word, sort = TRUE)

## # A tibble: 11,769 x 2
##    word       n
##    <chr>  <int>
##  1 time     454
##  2 people   302
##  3 door     260
##  4 heard    249
##  5 black    232
##  6 stood    229
##  7 white    222
##  8 hand     218
##  9 kemp     213
## 10 eyes     210
## # ... with 11,759 more rows
…
# bronte <- gutenberg_download(c(1260, 768, 969, 9182, 767))

tidy_bronte <- bronte %>%
  unnest_tokens(word, text) %>%
  anti_join(stop_words)

## Joining, by = "word"

Bront sisters      .

tidy_bronte %>%
  count(word, sort = TRUE)

## # A tibble: 23,051 x 2
##    word       n
##    <chr>  <int>
##  1 time    1065
##  2 miss     855
##  3 day      827
##  4 hand     768
##  5 eyes     713
##  6 night    647
##  7 heart    638
##  8 looked   602
##  9 door     592
## 10 half     586
## # ... with 23,041 more rows
…
frequency <- bind_rows(mutate(tidy_bronte, author = "Bront Sisters"),
                       mutate(tidy_hgwells, author = "H.G. Wells"), 
                       mutate(tidy_books, author = "Jane Austen")) %>% 
  mutate(word = str_extract(word, "[a-z']+")) %>%
  count(author, word) %>%
  group_by(author) %>%
  mutate(proportion = n / sum(n)) %>% 
  select(-n) %>% 
  pivot_wider(names_from = author, values_from = proportion) %>%
  pivot_longer(`Bront Sisters`:`H.G. Wells`,
               names_to = "author", values_to = "proportion")

frequency

## # A tibble: 57,820 x 4
##    word    `Jane Austen` author          proportion
##    <chr>           <dbl> <chr>                <dbl>
##  1 a          0.00000919 Bronte Sisters  0.0000319 
##  2 a          0.00000919 H.G. Wells      0.0000150 
##  3 a'most    NA          Bronte Sisters  0.0000159 
##  4 a'most    NA          H.G. Wells     NA         
##  5 aback     NA          Bronte Sisters  0.00000398
##  6 aback     NA          H.G. Wells      0.0000150 
##  7 abaht     NA          Bronte Sisters  0.00000398
##  8 abaht     NA          H.G. Wells     NA         
##  9 abandon   NA          Bronte Sisters  0.0000319 
## 10 abandon   NA          H.G. Wells      0.0000150 
## # ... with 57,810 more rows
…
