Converting to and from non-tidy formats
…
## The following objects are masked from 'package:stats':
## 
##     filter, lag

## The following objects are masked from 'package:base':
## 
##     intersect, setdiff, setequal, union

library(tidytext)

ap_td <- tidy(AssociatedPress)
ap_td

## # A tibble: 302,031 x 3
##    document term       count
##       <int> <chr>      <dbl>
##  1        1 adding         1
##  2        1 adult          2
##  3        1 ago            1
##  4        1 alcohol        1
##  5        1 allegedly      1
##  6        1 allen          1
##  7        1 apparently     2
##  8        1 appeared       1
##  9        1 arrested       1
## 10        1 assault        1
## # ... with 302,021 more rows

 document, term, count  3  tidy format tbl_df   .   sparse matrix  matrix  reshape2::melt()   .

  0   . document 1 adding adult    aaron  abandon  .  tidy version count = 0     .

   tidy format dplyr, tidytext  ggplot2package  .   2          .

ap_sentiments <- ap_td %>%
  inner_join(get_sentiments("bing"), by = c(term = "word"))

ap_sentiments

## # A tibble: 30,094 x 4
##    document term    count sentiment
##       <int> <chr>   <dbl> <chr>    
##  1        1 assault     1 negative 
##  2        1 complex     1 negative 
##  3        1 death       1 negative 
##  4        1 died        1 negative 
##  5        1 good        2 positive 
##  6        1 illness     1 negative 
##  7        1 killed      2 negative 
##  8        1 like        2 positive 
##  9        1 liked       1 positive 
## 10        1 miracle     1 positive 
## # ... with 30,084 more rows
…
data("data_corpus_inaugural", package = "quanteda")
inaug_dfm <- data_corpus_inaugural %>%
  quanteda::tokens() %>%
  quanteda::dfm(verbose = FALSE)
inaug_dfm

## Document-feature matrix of: 59 documents, 9,439 features (91.84% sparse) and 4 docvars.

tidy method  dfm(document-feature matrices)  one-token-per-document-per-row table .

inaug_td <- tidy(inaug_dfm)
inaug_td

## # A tibble: 45,453 x 3
##    document        term            count
##    <chr>           <chr>           <dbl>
##  1 1789-Washington fellow-citizens     1
##  2 1797-Adams      fellow-citizens     3
##  3 1801-Jefferson  fellow-citizens     2
##  4 1809-Madison    fellow-citizens     1
##  5 1813-Madison    fellow-citizens     1
##  6 1817-Monroe     fellow-citizens     5
##  7 1821-Monroe     fellow-citizens     1
##  8 1841-Harrison   fellow-citizens    11
##  9 1845-Polk       fellow-citizens     1
## 10 1849-Taylor     fellow-citizens     1
## # ... with 45,443 more rows

        3  bind_tf_idf()   - tf-idf     .

inaug_tf_idf <- inaug_td %>%
  bind_tf_idf(term, document, count) %>%
  arrange(desc(tf_idf))

inaug_tf_idf

## # A tibble: 45,453 x 6
##    document        term        count      tf   idf tf_idf
##    <chr>           <chr>       <dbl>   <dbl> <dbl>  <dbl>
##  1 1793-Washington arrive          1 0.00680  4.08 0.0277
##  2 1793-Washington upbraidings     1 0.00680  4.08 0.0277
##  3 1793-Washington violated        1 0.00680  3.38 0.0230
##  4 1793-Washington willingly       1 0.00680  3.38 0.0230
##  5 1793-Washington incurring       1 0.00680  3.38 0.0230
##  6 1793-Washington previous        1 0.00680  2.98 0.0203
##  7 1793-Washington knowingly       1 0.00680  2.98 0.0203
##  8 1793-Washington injunctions     1 0.00680  2.98 0.0203
##  9 1793-Washington witnesses       1 0.00680  2.98 0.0203
## 10 1793-Washington besides         1 0.00680  2.69 0.0183
## # ... with 45,443 more rows
…
tidy data                   .

 0(    )      tidyrpackage complete() .

library(tidyr)

year_term_counts <- inaug_td %>%
  extract(document, "year", "(\\d+)", convert = TRUE) %>%
  complete(year, term, fill = list(count = 0)) %>%
  group_by(year) %>%
  mutate(year_total = sum(count))

year_term_counts

## # A tibble: 556,901 x 4
## # Groups:   year [59]
##     year term  count year_total
##    <int> <chr> <dbl>      <dbl>
##  1  1789 "'"       0       1537
##  2  1789 "-"       1       1537
##  3  1789 "!"       0       1537
##  4  1789 "\""      2       1537
##  5  1789 "$"       0       1537
##  6  1789 "("       1       1537
##  7  1789 ")"       1       1537
##  8  1789 ","      70       1537
##  9  1789 "."      23       1537
## 10  1789 "/"       0       1537
## # ... with 556,891 more rows
…
# first document
acq[[1]]

## <<PlainTextDocument>>
## Metadata:  15
## Content:  chars: 1287

corpus object list         .      tidy tools   .

 tidy() method  (id datetimestamp ) text          .

acq_td <- tidy(acq)
acq_td

## # A tibble: 50 x 16
##    author  datetimestamp       description heading  id    language origin topics
##    <chr>   <dttm>              <chr>       <chr>    <chr> <chr>    <chr>  <chr> 
##  1 <NA>    1987-02-26 15:18:06 ""          COMPUTE~ 10    en       Reute~ YES   
##  2 <NA>    1987-02-26 15:19:15 ""          OHIO MA~ 12    en       Reute~ YES   
##  3 <NA>    1987-02-26 15:49:56 ""          MCLEAN'~ 44    en       Reute~ YES   
##  4 By Cal~ 1987-02-26 15:51:17 ""          CHEMLAW~ 45    en       Reute~ YES   
##  5 <NA>    1987-02-26 16:08:33 ""          <COFAB ~ 68    en       Reute~ YES   
##  6 <NA>    1987-02-26 16:32:37 ""          INVESTM~ 96    en       Reute~ YES   
##  7 By Pat~ 1987-02-26 16:43:13 ""          AMERICA~ 110   en       Reute~ YES   
##  8 <NA>    1987-02-26 16:59:25 ""          HONG KO~ 125   en       Reute~ YES   
##  9 <NA>    1987-02-26 17:01:28 ""          LIEBERT~ 128   en       Reute~ YES   
## 10 <NA>    1987-02-26 17:08:27 ""          GULF AP~ 134   en       Reute~ YES   
## # ... with 40 more rows, and 8 more variables: lewissplit <chr>,
## #   cgisplit <chr>, oldid <chr>, places <named list>, people <lgl>, orgs <lgl>,
## #   exchanges <lgl>, text <chr>

   unnest_tokens()  50                .

acq_tokens <- acq_td %>%
  select(-places) %>%
  unnest_tokens(word, text) %>%
  anti_join(stop_words, by = "word")

## Warning: Outer names are only allowed for unnamed scalar atomic inputs

# most common words
acq_tokens %>%
  count(word, sort = TRUE)

## # A tibble: 1,566 x 2
##    word         n
##    <chr>    <int>
##  1 dlrs       100
##  2 pct         70
##  3 mln         65
##  4 company     63
##  5 shares      52
##  6 reuter      50
##  7 stock       46
##  8 offer       34
##  9 share       34
## 10 american    28
## # ... with 1,556 more rows

# tf-idf
acq_tokens %>%
  count(id, word) %>%
  bind_tf_idf(word, id, n) %>%
  arrange(desc(tf_idf))

## # A tibble: 2,853 x 6
##    id    word         n     tf   idf tf_idf
##    <chr> <chr>    <int>  <dbl> <dbl>  <dbl>
##  1 186   groupe       2 0.133   3.91  0.522
##  2 128   liebert      3 0.130   3.91  0.510
##  3 474   esselte      5 0.109   3.91  0.425
##  4 371   burdett      6 0.103   3.91  0.405
##  5 442   hazleton     4 0.103   3.91  0.401
##  6 199   circuit      5 0.102   3.91  0.399
##  7 162   suffield     2 0.1     3.91  0.391
##  8 498   west         3 0.1     3.91  0.391
##  9 441   rmj          8 0.121   3.22  0.390
## 10 467   nursery      3 0.0968  3.91  0.379
## # ... with 2,843 more rows
…
corpus list    WebCorpus object acq    .  tidy()      tidyr::unnest()     unnest_tokens()  text         .

library(purrr)
stock_tokens <- stock_articles %>%
  mutate(corpus = map(corpus, tidy)) %>%
  unnest(cols = (corpus)) %>%
  unnest_tokens(word, text) %>%
  select(company, datetimestamp, word, id, heading)

## Warning: Outer names are only allowed for unnamed scalar atomic inputs

stock_tokens

## # A tibble: 106,309 x 5
##    company   datetimestamp       word        id            heading              
##    <chr>     <dttm>              <chr>       <chr>         <chr>                
##  1 Microsoft 2017-01-17 12:07:24 microsoft   tag:finance.~ Microsoft Corporatio~
##  2 Microsoft 2017-01-17 12:07:24 corporation tag:finance.~ Microsoft Corporatio~
##  3 Microsoft 2017-01-17 12:07:24           tag:finance.~ Microsoft Corporatio~
##  4 Microsoft 2017-01-17 12:07:24 ata         tag:finance.~ Microsoft Corporatio~
##  5 Microsoft 2017-01-17 12:07:24 privacy     tag:finance.~ Microsoft Corporatio~
##  6 Microsoft 2017-01-17 12:07:24 could       tag:finance.~ Microsoft Corporatio~
##  7 Microsoft 2017-01-17 12:07:24 send        tag:finance.~ Microsoft Corporatio~
##  8 Microsoft 2017-01-17 12:07:24 msft        tag:finance.~ Microsoft Corporatio~
##  9 Microsoft 2017-01-17 12:07:24 stock       tag:finance.~ Microsoft Corporatio~
## 10 Microsoft 2017-01-17 12:07:24 soaring     tag:finance.~ Microsoft Corporatio~
## # ... with 106,299 more rows

        tf-idf          .

library(stringr)

stock_tf_idf <- stock_tokens %>%
  count(company, word) %>%
  filter(!str_detect(word, "\\d+")) %>%
  bind_tf_idf(word, company, n) %>%
  arrange(-tf_idf)

stock_tf_idf

## # A tibble: 19,522 x 6
##    company   word           n      tf   idf  tf_idf
##    <chr>     <chr>      <int>   <dbl> <dbl>   <dbl>
##  1 Netflix   netflix      237 0.0215  0.811 0.0174 
##  2 Microsoft microsoft    223 0.0212  0.588 0.0125 
##  3 IBM       ibm          150 0.0122  0.811 0.00990
##  4 Apple     iphone        90 0.00640 1.50  0.00962
##  5 IBM       machines     101 0.00822 1.10  0.00903
##  6 Google    dnb           37 0.00305 2.20  0.00670
##  7 Twitter   twitter's     40 0.00402 1.50  0.00605
##  8 Yahoo     yahoo        229 0.0226  0.251 0.00568
##  9 Facebook  facebook's    38 0.00373 1.50  0.00560
## 10 Amazon    echo          36 0.00366 1.50  0.00550
## # ... with 19,512 more rows
…
