Sentiment analysis with tidy data
…
AFINN from Finn rup Nielsen,

bing from Bing Liu and collaborators, and

nrc from Saif Mohammad and Peter Turney.

     ,     .        /  , ,        . nrc    (/) , , , , , , , , ,   . bing         . AFINN  -5 5    ,          .

get_sentiments()         .

library(tidytext)

get_sentiments("afinn")

## # A tibble: 2,477 x 2
##    word       value
##    <chr>      <dbl>
##  1 abandon       -2
##  2 abandoned     -2
##  3 abandons      -2
##  4 abducted      -2
##  5 abduction     -2
##  6 abductions    -2
##  7 abhor         -3
##  8 abhorred      -3
##  9 abhorrent     -3
## 10 abhors        -3
## # ... with 2,467 more rows

get_sentiments("bing")

## # A tibble: 6,786 x 2
##    word        sentiment
##    <chr>       <chr>    
##  1 2-faces     negative 
##  2 abnormal    negative 
##  3 abolish     negative 
##  4 abominable  negative 
##  5 abominably  negative 
##  6 abominate   negative 
##  7 abomination negative 
##  8 abort       negative 
##  9 aborted     negative 
## 10 aborts      negative 
## # ... with 6,776 more rows

get_sentiments("nrc")

## # A tibble: 13,875 x 2
##    word        sentiment
##    <chr>       <chr>    
##  1 abacus      trust    
##  2 abandon     fear     
##  3 abandon     negative 
##  4 abandon     sadness  
##  5 abandoned   anger    
##  6 abandoned   fear     
##  7 abandoned   negative 
##  8 abandoned   sadness  
##  9 abandonment anger    
## 10 abandonment fear     
## # ... with 13,865 more rows
…
unnest_tokens() argument word .      word     inner_join() anti_join()     .

           .  (joy)     NRC filter() .    NRC   inner_join()  NRC       Emma   count() .

nrc_joy <- get_sentiments("nrc") %>% 
  filter(sentiment == "joy")

tidy_books %>%
  filter(book == "Emma") %>%
  inner_join(nrc_joy) %>%
  count(word, sort = TRUE)

## Joining, by = "word"

## # A tibble: 301 x 2
##    word          n
##    <chr>     <int>
##  1 good        359
##  2 friend      166
##  3 hope        143
##  4 happy       125
##  5 love        117
##  6 deal         92
##  7 found        92
##  8 present      89
##  9 kind         82
## 10 happiness    76
## # ... with 291 more rows

## Joining, by = "word"

## # A tibble: 301 x 2
##    word          n
##    <chr>     <int>
##  1 good        359
##  2 friend      166
##  3 hope        143
##  4 happy       125
##  5 love        117
##  6 deal         92
##  7 found        92
##  8 present      89
##  9 kind         82
## 10 happiness    76
## # ... with 291 more rows
…
Sentiment through the narratives of Jane Austens novels

 2.2              .

1.3 Comparing the three sentiment dictionaries

                .              .  filter()   .

pride_prejudice <- tidy_books %>% 
  filter(book == "Pride & Prejudice")

pride_prejudice

## # A tibble: 122,204 x 4
##    book              linenumber chapter word     
##    <fct>                  <int>   <int> <chr>    
##  1 Pride & Prejudice          1       0 pride    
##  2 Pride & Prejudice          1       0 and      
##  3 Pride & Prejudice          1       0 prejudice
##  4 Pride & Prejudice          3       0 by       
##  5 Pride & Prejudice          3       0 jane     
##  6 Pride & Prejudice          3       0 austen   
##  7 Pride & Prejudice          7       1 chapter  
##  8 Pride & Prejudice          7       1 1        
##  9 Pride & Prejudice         10       1 it       
## 10 Pride & Prejudice         10       1 is       
## # ... with 122,194 more rows
…
1.4 Most common positive and negative words

                .  word sentiment  count()          .

bing_word_counts <- tidy_books %>%
  inner_join(get_sentiments("bing")) %>%
  count(word, sentiment, sort = TRUE) %>%
  ungroup()

## Joining, by = "word"

bing_word_counts

## # A tibble: 2,585 x 3
##    word     sentiment     n
##    <chr>    <chr>     <int>
##  1 miss     negative   1855
##  2 well     positive   1523
##  3 good     positive   1380
##  4 great    positive    981
##  5 like     positive    725
##  6 better   positive    639
##  7 enough   positive    613
##  8 happy    positive    534
##  9 love     positive    495
## 10 pleasure positive    462
## # ... with 2,575 more rows
…
Words that contribute to positive and negative sentiment in Jane Austens novels

 2.4         . miss                .                 .

custom_stop_words <- bind_rows(tibble(word = c("miss"),  
                                      lexicon = c("custom")), 
                               stop_words)

custom_stop_words

## # A tibble: 1,150 x 2
##    word        lexicon
##    <chr>       <chr>  
##  1 miss        custom 
##  2 a           SMART  
##  3 a's         SMART  
##  4 able        SMART  
##  5 about       SMART  
##  6 above       SMART  
##  7 according   SMART  
##  8 accordingly SMART  
##  9 across      SMART  
## 10 actually    SMART  
## # ... with 1,140 more rows
…
